20

7 15
11
t 4 8 s
t 0 9 w
f 6 8 n
f 1 3 s
r 2 5 w
r 2 11 s
h 0 8 e
t 6 14 w
f 3 10 w
t 0 10 s
t 0 5 w
10 8

6 10
16
r 2 4 s
f 3 1 w
r 1 2 e
f 3 6 e
t 0 6 n
t 0 2 n
t 4 3 w
f 0 2 e
f 5 1 s
f 2 4 n
f 0 5 n
r 0 6 e
h 1 3 s
f 2 2 n
f 1 8 s
t 3 2 w
17 1

1 9
12
f 0 4 n
t 0 6 n
h 0 2 w
t 0 3 e
f 0 8 n
r 0 6 s
h 0 2 e
f 0 3 s
r 0 5 w
f 0 4 s
t 0 4 s
f 0 4 e
17 3

9 12
12
h 7 0 s
f 1 7 s
t 8 10 n
h 4 10 e
f 1 8 s
r 3 2 e
r 7 8 e
h 3 7 s
h 8 7 s
r 2 6 e
r 5 5 e
h 6 5 n
15 1

9 20
2
r 0 12 n
t 6 3 e
12 4

19 12
2
t 0 7 w
f 3 5 n
13 5

12 4
13
h 5 0 e
h 7 2 w
f 2 2 n
f 5 0 e
f 6 1 e
h 6 3 w
t 2 1 e
t 8 0 w
h 8 3 n
r 5 0 e
h 8 2 w
t 11 2 w
r 11 2 n
16 1

3 19
11
r 2 2 e
f 1 5 e
h 2 13 n
t 1 13 n
r 1 4 n
t 1 3 e
r 1 13 n
t 1 0 n
t 1 14 e
r 2 10 e
t 0 14 n
17 5

18 11
13
r 16 1 n
t 14 10 w
h 6 9 s
f 12 7 s
t 6 8 w
h 8 2 n
f 7 8 n
t 11 6 e
t 9 7 e
t 15 4 n
t 3 3 n
f 8 9 w
f 17 4 e
17 10

4 5
11
t 0 3 n
t 0 3 e
r 0 2 w
r 0 3 w
h 3 3 s
t 3 1 n
h 0 1 w
t 0 0 s
t 2 0 s
f 2 0 w
f 1 4 w
17 8

7 6
1
h 0 4 e
18 2

8 16
16
t 2 0 s
t 4 12 s
t 5 9 w
t 7 7 w
f 0 9 n
f 6 0 n
f 3 6 e
r 3 7 w
r 7 6 n
t 4 7 e
f 2 0 w
t 1 7 w
t 3 5 n
r 6 2 w
t 6 0 w
f 6 4 w
13 9

16 3
10
h 15 0 n
t 13 0 s
r 11 0 e
r 7 0 s
t 3 2 w
h 11 0 s
t 3 0 n
r 4 1 w
r 7 2 n
h 5 0 s
11 2

11 8
16
r 1 7 s
r 8 3 n
r 9 5 n
r 0 5 n
f 2 2 n
t 2 3 n
t 4 0 e
t 6 0 e
t 10 0 e
t 8 5 s
f 6 2 e
h 10 7 e
f 7 2 n
t 2 2 n
r 2 6 s
f 0 7 n
12 4

20 12
6
r 14 1 n
r 12 6 n
f 8 11 e
f 3 3 s
r 19 11 e
f 12 8 s
17 9

13 12
8
t 7 0 w
f 10 7 s
t 2 4 w
t 1 10 e
h 1 1 e
t 12 0 w
h 10 3 s
f 5 5 n
14 7

10 11
19
h 7 0 w
h 5 0 s
f 4 4 n
h 6 4 e
h 7 4 w
r 8 10 w
h 9 8 n
t 4 9 s
t 7 5 w
h 4 10 w
r 6 5 e
h 8 3 n
t 4 4 s
r 8 8 e
r 4 5 e
h 8 5 e
t 6 7 e
h 0 10 n
t 9 0 n
14 2

10 1
9
r 3 0 n
t 1 0 s
r 4 0 s
h 6 0 n
t 4 0 s
h 4 0 n
r 5 0 w
t 1 0 w
f 2 0 w
16 2

18 7
12
f 12 1 n
h 16 5 n
f 11 5 e
r 3 3 w
t 7 3 w
t 6 0 n
t 13 3 n
h 1 5 s
t 5 0 s
t 12 5 e
f 17 2 w
r 3 0 n
13 3

3 18
15
t 1 13 e
r 0 6 n
f 2 11 e
r 2 5 e
r 1 12 w
t 0 0 w
t 2 8 s
f 0 7 w
r 1 3 e
f 0 17 e
h 0 14 s
f 2 15 w
r 1 9 s
h 1 6 s
r 1 13 n
17 7
