*** Darwin 2x2 ***
Turn = 0.
  01
0 f.
1 .f

Turn = 1.
  01
0 f.
1 .f

Turn = 2.
  01
0 f.
1 .f

*** Darwin 3x3 ***
Turn = 0.
  012
0 r..
1 .h.
2 ..t

Turn = 1.
  012
0 .h.
1 r..
2 ..t

Turn = 2.
  012
0 .h.
1 ...
2 r.t

Turn = 3.
  012
0 .h.
1 ...
2 r.t

Turn = 4.
  012
0 .h.
1 ...
2 r.t

Turn = 5.
  012
0 .h.
1 ...
2 r.t

*** Darwin 10x1 ***
Turn = 0.
  0
0 r
1 .
2 .
3 .
4 .
5 .
6 .
7 .
8 .
9 f

Turn = 1.
  0
0 .
1 r
2 .
3 .
4 .
5 .
6 .
7 .
8 .
9 f

Turn = 2.
  0
0 .
1 .
2 r
3 .
4 .
5 .
6 .
7 .
8 .
9 f

Turn = 3.
  0
0 .
1 .
2 .
3 r
4 .
5 .
6 .
7 .
8 .
9 f

Turn = 4.
  0
0 .
1 .
2 .
3 .
4 r
5 .
6 .
7 .
8 .
9 f

Turn = 5.
  0
0 .
1 .
2 .
3 .
4 .
5 r
6 .
7 .
8 .
9 f

Turn = 6.
  0
0 .
1 .
2 .
3 .
4 .
5 .
6 r
7 .
8 .
9 f

Turn = 7.
  0
0 .
1 .
2 .
3 .
4 .
5 .
6 .
7 r
8 .
9 f

Turn = 8.
  0
0 .
1 .
2 .
3 .
4 .
5 .
6 .
7 .
8 r
9 f

Turn = 9.
  0
0 .
1 .
2 .
3 .
4 .
5 .
6 .
7 .
8 r
9 r

Turn = 10.
  0
0 .
1 .
2 .
3 .
4 .
5 .
6 .
7 .
8 r
9 r

Turn = 11.
  0
0 .
1 .
2 .
3 .
4 .
5 .
6 .
7 .
8 r
9 r

*** Darwin 2x2 ***
Turn = 0.
  01
0 f.
1 .f

Turn = 2.
  01
0 f.
1 .f

*** Darwin 4x2 ***
Turn = 0.
  01
0 hh
1 ..
2 ..
3 hh

Turn = 1.
  01
0 hh
1 ..
2 .h
3 h.

Turn = 2.
  01
0 hh
1 .h
2 ..
3 h.

Turn = 3.
  01
0 hh
1 .h
2 ..
3 h.

Turn = 4.
  01
0 hh
1 .h
2 ..
3 h.

Turn = 5.
  01
0 hh
1 .h
2 ..
3 h.

Turn = 6.
  01
0 hh
1 .h
2 ..
3 h.

Turn = 7.
  01
0 hh
1 .h
2 ..
3 h.

Turn = 8.
  01
0 hh
1 .h
2 ..
3 h.

Turn = 9.
  01
0 hh
1 .h
2 ..
3 h.

Turn = 10.
  01
0 hh
1 .h
2 ..
3 h.

*** Darwin 20x20 ***
Turn = 0.
  01234567890123456789
0 fhrtrhfftthhhrrrrfft
1 ....................
2 ....................
3 ....................
4 ....................
5 ....................
6 ....................
7 ....................
8 ....................
9 ....................
0 ....................
1 ....................
2 ....................
3 ....................
4 ....................
5 ....................
6 ....................
7 ....................
8 ....................
9 ....................

Turn = 20.
  01234567890123456789
0 f..ttttttttttt....tt
1 ....................
2 ....................
3 ....................
4 ....................
5 ....................
6 ....................
7 ....................
8 ....................
9 ....................
0 ....................
1 ....................
2 ....................
3 ....................
4 ....................
5 ..............r.....
6 ................rr..
7 ...............r....
8 .rr.................
9 ....................

Turn = 40.
  01234567890123456789
0 f..ttttttttttt....tt
1 ....................
2 .rr.................
3 ....................
4 ....................
5 ....................
6 ...................r
7 ....................
8 ....................
9 ....................
0 ....................
1 ....................
2 ....................
3 ....................
4 ....................
5 ....................
6 ....................
7 ....................
8 ....................
9 rrr.................

Turn = 60.
  01234567890123456789
0 ..r..rr..ttttt....tt
1 ...................t
2 .....r..............
3 ......r.............
4 r.......r...........
5 ...r................
6 ....................
7 ....................
8 ....................
9 ....................
0 ...rr...............
1 ....................
2 ......r.............
3 ....................
4 ....................
5 ....r...............
6 ....................
7 ....................
8 ....................
9 ....................

Turn = 80.
  01234567890123456789
0 .....r...ttttt....tt
1 ...................t
2 ....................
3 ....................
4 ....................
5 ....................
6 ....................
7 ....................
8 ....................
9 ...r................
0 ....................
1 ....................
2 ....................
3 ....................
4 ....r..r............
5 r.r..........r......
6 r........r.r........
7 ....................
8 ....................
9 ...rr...............

Turn = 100.
  01234567890123456789
0 r...r.....tttt....tt
1 r..................t
2 ....................
3 .r..................
4 ..................r.
5 ....................
6 ....................
7 ....................
8 ....................
9 ..r.................
0 ....................
1 ....................
2 ........r...........
3 .........r..........
4 ....................
5 ...............r....
6 ..............r.....
7 ................rr..
8 ....................
9 ............r.......

*** Darwin 20x20 ***
Turn = 0.
  01234567890123456789
0 ....................
1 ....................
2 ....................
3 ....................
4 ....................
5 ....................
6 ....................
7 ....................
8 ....................
9 ....................
0 ....................
1 ....................
2 ....................
3 ....................
4 ....................
5 ....................
6 ....................
7 ....................
8 ....................
9 fhrtrhfftthhhrrrrfft

Turn = 20.
  01234567890123456789
0 ....r.........rrr...
1 .rr.................
2 ....................
3 ....................
4 ....................
5 ....................
6 ....................
7 ....................
8 ....................
9 ....................
0 ....................
1 ....................
2 ....................
3 ....................
4 ....................
5 ....................
6 ....................
7 ....................
8 ....................
9 f..tt.tttttttt...ttt

Turn = 40.
  01234567890123456789
0 ...................r
1 ....................
2 ....................
3 ....................
4 ....................
5 ....................
6 ....................
7 ....................
8 ................r...
9 ....................
0 ....................
1 ....................
2 ....................
3 ....................
4 ....................
5 ....................
6 ....................
7 .rr.................
8 ....................
9 f..tt.ttttttttr.rttt

Turn = 60.
  01234567890123456789
0 ....................
1 ....................
2 ....................
3 ..r.................
4 ....................
5 ....................
6 ....................
7 r...................
8 ....................
9 r...................
0 ..................r.
1 ....................
2 ....................
3 ....................
4 ....................
5 ..................r.
6 ....................
7 ...................r
8 .................r.r
9 ...tt.ttttttttt....r

Turn = 80.
  01234567890123456789
0 ........r..r..r....r
1 ..........r..r.....r
2 ...................r
3 ....................
4 ....................
5 ....................
6 ....................
7 ....................
8 ....................
9 ....................
0 ....................
1 ....................
2 ....................
3 ....................
4 ....................
5 ....................
6 ....................
7 ....................
8 ..............t.....
9 ...tt.ttttttttt.....

Turn = 100.
  01234567890123456789
0 ..r.................
1 ....................
2 r...................
3 ....................
4 ....................
5 r...................
6 ....................
7 ....................
8 ....................
9 ....................
0 ....................
1 ....................
2 ....................
3 ....................
4 ...................r
5 ....................
6 ....................
7 ..........r.........
8 .........r.r..t.....
9 ...tt.ttttttttt....r

*** Darwin 1x1 ***
Turn = 0.
  0
0 r

Turn = 1.
  0
0 r

*** Darwin 1x10 ***
Turn = 0.
  0123456789
0 r........f

Turn = 1.
  0123456789
0 r........f

Turn = 2.
  0123456789
0 r........f

Turn = 3.
  0123456789
0 r........f

Turn = 4.
  0123456789
0 r........f

Turn = 5.
  0123456789
0 .r.......f

Turn = 6.
  0123456789
0 ..r......f

Turn = 7.
  0123456789
0 ...r.....f

Turn = 8.
  0123456789
0 ....r....f

Turn = 9.
  0123456789
0 .....r...f

Turn = 10.
  0123456789
0 ......r..f

Turn = 11.
  0123456789
0 .......r.f

*** Darwin 1x10 ***
Turn = 0.
  0123456789
0 r...r....f

Turn = 1.
  0123456789
0 r...r....f

Turn = 2.
  0123456789
0 r..r.....f

Turn = 3.
  0123456789
0 .rr......f

Turn = 4.
  0123456789
0 .rr......f

Turn = 5.
  0123456789
0 .rr......f

Turn = 6.
  0123456789
0 rr.......f

Turn = 7.
  0123456789
0 rr.......f

Turn = 8.
  0123456789
0 rr.......f

Turn = 9.
  0123456789
0 rr.......f

Turn = 10.
  0123456789
0 rr.......f

Turn = 11.
  0123456789
0 rr.......f

Turn = 12.
  0123456789
0 rr.......f

Turn = 13.
  0123456789
0 r.r......f

Turn = 14.
  0123456789
0 r..r.....f

Turn = 15.
  0123456789
0 r...r....f

Turn = 16.
  0123456789
0 r....r...f

Turn = 17.
  0123456789
0 r.....r..f

Turn = 18.
  0123456789
0 r......r.f

Turn = 19.
  0123456789
0 r.......rf

Turn = 20.
  0123456789
0 r.......rr

*** Darwin 1x20 ***
Turn = 0.
  01234567890123456789
0 r...rt...f..........

Turn = 1.
  01234567890123456789
0 r...rt...f..........

Turn = 2.
  01234567890123456789
0 r..r.t...f..........

Turn = 3.
  01234567890123456789
0 .rr..t...f..........

Turn = 4.
  01234567890123456789
0 .rr..t...f..........

Turn = 5.
  01234567890123456789
0 .rr..t...f..........

Turn = 6.
  01234567890123456789
0 rr...t...f..........

Turn = 7.
  01234567890123456789
0 rr...t...f..........

Turn = 8.
  01234567890123456789
0 rr...t...f..........

Turn = 9.
  01234567890123456789
0 rr...t...f..........

Turn = 10.
  01234567890123456789
0 rr...t...f..........

Turn = 11.
  01234567890123456789
0 rr...t...f..........

Turn = 12.
  01234567890123456789
0 rr...t...f..........

Turn = 13.
  01234567890123456789
0 r.r..t...f..........

Turn = 14.
  01234567890123456789
0 r..r.t...f..........

Turn = 15.
  01234567890123456789
0 r...tt...f..........

Turn = 16.
  01234567890123456789
0 r...tt...f..........

Turn = 17.
  01234567890123456789
0 r...tt...f..........

Turn = 18.
  01234567890123456789
0 r...tt...f..........

Turn = 19.
  01234567890123456789
0 r...tt...f..........

Turn = 20.
  01234567890123456789
0 r...tt...f..........

*** Darwin 20x20 ***
Turn = 0.
  01234567890123456789
0 fhrtrhfftthhhrrrrfft
1 ....................
2 ....................
3 ....................
4 ....................
5 ....................
6 ....................
7 ....................
8 ....................
9 ....................
0 ....................
1 ....................
2 ....................
3 ....................
4 ....................
5 ....................
6 ....................
7 ....................
8 ....................
9 fhrtrhfftthhhrrrrfft

Turn = 20.
  01234567890123456789
0 f...r......rr.rr.ttt
1 ..........r.........
2 ....................
3 ..............r.....
4 ....................
5 ....r.....r.........
6 r...................
7 ........r...........
8 ....r.rrr...........
9 .r...rr.............
0 ....................
1 r........r..........
2 ....................
3 .....r..............
4 .....r.............r
5 ....................
6 ......r.............
7 ....................
8 ..r.................
9 ......tttttttt...ttt

Turn = 40.
  01234567890123456789
0 r.r.............tttt
1 ..r.................
2 ....................
3 .............r......
4 ......r.............
5 ....................
6 ...r.r..............
7 ......r.....r.......
8 .....r..............
9 ....................
0 ....................
1 ....................
2 .....r..............
3 .r..................
4 r...................
5 r....r..............
6 ................r...
7 ...................t
8 r....rrrt..t.t.....t
9 .......tttttttr..ttt

Turn = 60.
  01234567890123456789
0 r...r...r.......tttt
1 rr.................t
2 r...r...........r...
3 ....................
4 ...................r
5 r...................
6 ....................
7 ..................r.
8 ......r...r.r.......
9 .............r......
0 ....................
1 ..............r.....
2 r...................
3 ....................
4 ...................r
5 ....................
6 ....rr..............
7 ...........t........
8 ........t..t.rr.....
9 ......ttttttttrr....

Turn = 80.
  01234567890123456789
0 ........r....r...ttt
1 .....r............tt
2 ...................t
3 ....................
4 ....................
5 ....................
6 ........r...........
7 .........r....rr....
8 ....................
9 .......r............
0 ................r...
1 ....rrr.............
2 ....................
3 ....................
4 ....................
5 .......r............
6 r...r...............
7 ...........t........
8 ......r.t.tt..t.....
9 rr..rr..ttttttttr...

Turn = 100.
  01234567890123456789
0 ...r.............ttt
1 ..................tt
2 ...................t
3 ....................
4 .......r............
5 ....................
6 .............r.....r
7 ....................
8 .rr.................
9 ....r.r.............
0 ....................
1 r.r.................
2 ....................
3 r...................
4 ....................
5 ....................
6 ....................
7 ........t.tt..t.....
8 ........rttt..tt....
9 ..r..rrrrrttttttt...

*** Darwin 1x1 ***
Turn = 0.
  0
0 h

Turn = 1.
  0
0 h

*** Darwin 5x7 ***
Turn = 0.
  0123456
0 r......
1 .......
2 .......
3 .......
4 ......f

Turn = 3.
  0123456
0 ...r...
1 .......
2 .......
3 .......
4 ......f

Turn = 6.
  0123456
0 ......r
1 .......
2 .......
3 .......
4 ......f

Turn = 9.
  0123456
0 .......
1 .......
2 ......r
3 .......
4 ......f

Turn = 12.
  0123456
0 .......
1 .......
2 .......
3 ......r
4 ......r

Turn = 15.
  0123456
0 .......
1 .......
2 .......
3 ...r...
4 ....r..

Turn = 18.
  0123456
0 .......
1 .......
2 .......
3 r......
4 .r.....

Turn = 21.
  0123456
0 .......
1 r......
2 .......
3 .......
4 r......

Turn = 24.
  0123456
0 .r.....
1 .......
2 .......
3 .......
4 ...r...

Turn = 27.
  0123456
0 ....r..
1 .......
2 .......
3 .......
4 ......r

Turn = 30.
  0123456
0 ......r
1 .......
2 .......
3 .......
4 ......r

*** Darwin 1x50 ***
Turn = 0.
  01234567890123456789012345678901234567890123456789
0 f........................r.......................f

Turn = 25.
  01234567890123456789012345678901234567890123456789
0 f...............................................rr

Turn = 50.
  01234567890123456789012345678901234567890123456789
0 f........................r.........r..............

Turn = 75.
  01234567890123456789012345678901234567890123456789
0 rr........r.......................................

Turn = 100.
  01234567890123456789012345678901234567890123456789
0 .........r........r..r............................

*** Darwin 7x7 ***
Turn = 0.
  0123456
0 r.....r
1 .......
2 .......
3 ...f...
4 .......
5 .......
6 r.....r

Turn = 5.
  0123456
0 ....r..
1 .......
2 ......r
3 r..f...
4 .......
5 .......
6 .r.....

Turn = 10.
  0123456
0 .r...r.
1 .......
2 .......
3 ...f...
4 .......
5 r......
6 ......r

Turn = 15.
  0123456
0 r.r.r..
1 .......
2 .......
3 ...f...
4 ......r
5 .......
6 .......

Turn = 20.
  0123456
0 r.....r
1 .......
2 .......
3 rr.f...
4 .......
5 .......
6 .......

Turn = 25.
  0123456
0 .r.....
1 .......
2 .......
3 ...f...
4 .......
5 r......
6 rr.....

Turn = 30.
  0123456
0 .......
1 .r.....
2 .......
3 r..f...
4 r......
5 .......
6 r......

Turn = 35.
  0123456
0 r......
1 r......
2 r......
3 ...f...
4 ....r..
5 .......
6 .......

Turn = 40.
  0123456
0 .....r.
1 r....r.
2 .......
3 ...f...
4 .......
5 .......
6 ......r

Turn = 45.
  0123456
0 ......r
1 ....r..
2 .......
3 ...f...
4 .......
5 .......
6 r.r....

Turn = 50.
  0123456
0 .r.....
1 r......
2 .......
3 rr.f...
4 .......
5 .......
6 .......

*** Darwin 2x2 ***
Turn = 0.
  01
0 rf
1 ff

Turn = 2.
  01
0 rr
1 ff

Turn = 4.
  01
0 rr
1 rf

Turn = 6.
  01
0 rr
1 rr

Turn = 8.
  01
0 rr
1 rr

Turn = 10.
  01
0 rr
1 rr

*** Darwin 4x4 ***
Turn = 0.
  0123
0 rf..
1 ff..
2 ....
3 ....

Turn = 2.
  0123
0 rr..
1 ff..
2 ....
3 ....

Turn = 4.
  0123
0 rr..
1 rf..
2 ....
3 ....

Turn = 6.
  0123
0 .r.r
1 .r..
2 ....
3 .r..

Turn = 8.
  0123
0 ..rr
1 ...r
2 ....
3 r...

Turn = 10.
  0123
0 .r..
1 ....
2 ..rr
3 r...

*** Darwin 1x2 ***
Turn = 0.
  01
0 tr

Turn = 1.
  01
0 tt

Turn = 2.
  01
0 tt

Turn = 3.
  01
0 tt

Turn = 4.
  01
0 tt

*** Darwin 4x5 ***
Turn = 0.
  01234
0 ft...
1 .....
2 .....
3 ....r

Turn = 1.
  01234
0 ft...
1 .....
2 .....
3 ...r.

Turn = 2.
  01234
0 tt...
1 .....
2 .....
3 ..r..

Turn = 3.
  01234
0 tt...
1 .....
2 .....
3 .r...

Turn = 4.
  01234
0 tt...
1 .....
2 .....
3 r....

Turn = 5.
  01234
0 tt...
1 .....
2 .....
3 r....

Turn = 6.
  01234
0 tt...
1 .....
2 r....
3 .....

Turn = 7.
  01234
0 tt...
1 r....
2 .....
3 .....

Turn = 8.
  01234
0 tt...
1 t....
2 .....
3 .....

Turn = 9.
  01234
0 tt...
1 t....
2 .....
3 .....

Turn = 10.
  01234
0 tt...
1 t....
2 .....
3 .....
