*** Darwin 11x20 ***
Turn = 0.
  01234567890123456789
0 ....................
1 ..................r.
2 ..r......f..........
3 ............r.......
4 ..............r.....
5 ........f...........
6 ......f.............
7 ....h........t......
8 ..........t...r.....
9 ....................
0 ....................

*** Darwin 12x10 ***
Turn = 0.
  0123456789
0 ..........
1 ..........
2 ..f.......
3 ..........
4 ..........
5 ...f...tf.
6 ..........
7 ..........
8 ..........
9 .hf..t....
0 ........hf
1 .f........

*** Darwin 6x15 ***
Turn = 0.
  012345678901234
0 ...............
1 .......f..r..fr
2 ...t...r.t....h
3 .r.....t......f
4 .............r.
5 .ff.....h......

Turn = 7.
  012345678901234
0 r....r.........
1 .......f..r....
2 .r.......rr...r
3 .......t....r.r
4 ...r...........
5 .frr...........

Turn = 14.
  012345678901234
0 ..r....r.......
1 r...rr....r....
2 r...rr.........
3 r.....r.......r
4 ...............
5 .....r.r....r..

*** Darwin 14x14 ***
Turn = 0.
  01234567890123
0 ..............
1 ...........r..
2 .r..f.........
3 ..............
4 .....t...t....
5 .r............
6 ..............
7 .........t....
8 .t..........ff
9 ..............
0 .............t
1 ..............
2 ..............
3 ......r....h..

*** Darwin 10x12 ***
Turn = 0.
  012345678901
0 ............
1 .........f..
2 ............
3 ...h........
4 ............
5 ............
6 ..t.........
7 ............
8 ...r.......t
9 ......f.....

*** Darwin 9x15 ***
Turn = 0.
  012345678901234
0 ...............
1 ...............
2 .............r.
3 .....t.........
4 ...............
5 .....t.......t.
6 .............t.
7 ...........f...
8 ............f..

*** Darwin 15x7 ***
Turn = 0.
  0123456
0 .......
1 .....h.
2 .....r.
3 .......
4 .....tt
5 ......f
6 .......
7 .r...r.
8 ....f..
9 ......f
0 ...hr..
1 .......
2 .h.rt.r
3 .......
4 .......

Turn = 3.
  0123456
0 .......
1 .......
2 ..r....
3 .....h.
4 .....tt
5 ......f
6 .......
7 ..rh...
8 r...f..
9 ...r..f
0 ......r
1 .......
2 ...tt..
3 .......
4 ......r

Turn = 6.
  0123456
0 .......
1 .......
2 r......
3 .....t.
4 ...h.tt
5 ......t
6 ...r...
7 r......
8 ....f..
9 ......f
0 .......
1 r......
2 ...tt..
3 ......r
4 ....r..

Turn = 9.
  0123456
0 r......
1 ...h...
2 .......
3 ...r.t.
4 r....tt
5 ......t
6 .......
7 .......
8 ....f..
9 ......f
0 .......
1 .......
2 ...tt..
3 .......
4 rr....r

*** Darwin 6x18 ***
Turn = 0.
  012345678901234567
0 ..................
1 ........t.........
2 ..................
3 ...........t......
4 ......t.....h.....
5 ...t....f.....h...

*** Darwin 14x15 ***
Turn = 0.
  012345678901234
0 ...............
1 ......r........
2 ...............
3 .......t...r...
4 ...r...........
5 ........r......
6 ...............
7 .....f.........
8 ...............
9 ...............
0 ...............
1 ...............
2 ...t...........
3 .t.......f.....

Turn = 12.
  012345678901234
0 ..........r....
1 ...............
2 ...............
3 .......ttt.....
4 ...............
5 ...............
6 ...............
7 .....f.........
8 ...............
9 ...............
0 ...............
1 ...............
2 ...t...........
3 .t....r..f.....

*** Darwin 8x5 ***
Turn = 0.
  01234
0 .....
1 ..r.r
2 .r.f.
3 ...r.
4 ....t
5 ...tt
6 .....
7 ....t

*** Darwin 19x10 ***
Turn = 0.
  0123456789
0 ..........
1 ..........
2 ..........
3 ..........
4 ..........
5 .........h
6 ..........
7 ..........
8 .....f....
9 ...f......
0 ...r......
1 ..........
2 ..........
3 ..........
4 ..........
5 ..........
6 ..........
7 .h........
8 ..........

Turn = 5.
  0123456789
0 ..........
1 ..........
2 ..........
3 ..........
4 ..........
5 ...r.....h
6 ...r......
7 ..........
8 .....f....
9 ..........
0 ..........
1 ..........
2 ..........
3 ..........
4 ..........
5 ..........
6 ..........
7 h.........
8 ..........

*** Darwin 15x8 ***
Turn = 0.
  01234567
0 ........
1 ........
2 ........
3 ........
4 ........
5 .t......
6 ....t...
7 ......rr
8 ..h.....
9 .......t
0 ..r.....
1 .......h
2 ........
3 ........
4 ........

*** Darwin 19x10 ***
Turn = 0.
  0123456789
0 ..........
1 ..........
2 .....f....
3 ..........
4 ..........
5 ........r.
6 ..........
7 ..........
8 ..........
9 ..........
0 ..........
1 ..........
2 ....r.....
3 .....h....
4 ..........
5 ....h.....
6 ..........
7 .....h....
8 ..........

*** Darwin 15x16 ***
Turn = 0.
  0123456789012345
0 ................
1 ................
2 ...........f....
3 .......r...t....
4 ................
5 ................
6 ......h.........
7 ....t..h........
8 ..r........t....
9 .....r........rf
0 ................
1 ................
2 .....h.f........
3 ...........h....
4 ......f.........

*** Darwin 6x7 ***
Turn = 0.
  0123456
0 .......
1 .......
2 ...rt..
3 ..ft...
4 ...tftf
5 .......

Turn = 11.
  0123456
0 ..r....
1 .......
2 ....t..
3 ..tt...
4 ...tttt
5 .......

*** Darwin 9x16 ***
Turn = 0.
  0123456789012345
0 ................
1 ................
2 ...h..r........f
3 ................
4 ..........h.....
5 ...r...h........
6 ............h...
7 .....h..........
8 .....h...h......

*** Darwin 7x5 ***
Turn = 0.
  01234
0 .....
1 .....
2 .rr..
3 ...r.
4 .t.f.
5 .r..h
6 ..tfr

*** Darwin 9x5 ***
Turn = 0.
  01234
0 .....
1 .....
2 .t...
3 ...f.
4 .....
5 .f..h
6 ..h.h
7 ..tf.
8 .....

*** Darwin 18x11 ***
Turn = 0.
  01234567890
0 ...........
1 ...........
2 ...........
3 .........r.
4 ...........
5 .....t.....
6 ....t..h...
7 ...........
8 ...........
9 ..t........
0 .....t.....
1 .......t...
2 ..........h
3 ...........
4 ...........
5 ...h..t....
6 ...........
7 ...........

*** Darwin 7x18 ***
Turn = 0.
  012345678901234567
0 ..................
1 ........f...r.....
2 ....ht............
3 .............h....
4 ..................
5 ..................
6 ...............f..
